 --- Beginning with the exercise ---
 
 WARNING! The matrix is not a square matrix.
 > The trace of the matrix will not be calculated.
 > The sum of all non-diagonal elements of the matrix will not be calculated.
 > The square of the matrix will not be calculated.
 
 WARNING! The dimensions of the matrix and the vector do not match for a multiplication.
 c) Writing output file for the sum of all odd-column elements of the matrix ...
 e) Writing output file for the transpose of the matrix ...
 f) Writing output file for the product of the transpose of the matrix with itself ...
 h) Writing output file for the pointwise product of the two first columns of matrix B ...
 i) Writing output file for the product of the transpose of the matrix with matrix B ...
 j) Writing output file for the value of the sum of all elements in matrix B ...
 k) Writing output file for the vector containing the maximum values per row of matrix B ...
 
 The program finished with no errors. You may go for a beer.
 
 --- End of program ---
