      5.3800001      5.7399998      5.1900001      9.9399996
      0.0000000      0.6400000      3.7800000      2.3800001
      0.0000000      0.0000000      6.7900000      4.9800000
      0.0000000      0.0000000      0.0000000      3.0500000
